…
fixed_sim_df
```

    ## # A tibble: 5,000 × 3
    ##     iter estimate p.value
    ##    <int>    <dbl>   <dbl>
    ##  1     1  -2.01    0.0165
    ##  2     2  -1.12    0.171 
    ##  3     3   0.0709  0.940 
    ##  4     4  -0.370   0.619 
    ##  5     5   0.898   0.313 
    ##  6     6  -0.361   0.691 
    ##  7     7  -0.323   0.727 
    ##  8     8   0.161   0.860 
    ##  9     9  -0.109   0.924 
    ## 10    10   0.0874  0.931 
    ## # ℹ 4,990 more rows
…
sim_df = expand_grid(
    iter = 1:5000,
    pop_mean = c(1,2,3,4,5,6)) %>% 
    mutate(
    data = map(pop_mean, \(x) generate_normal(n = 30, x, sd = 5)),
    t_test_res = map(data, \(x) t.test(x, mu = 0)),
    tidy_res = map(t_test_res, tidy)
  ) %>% 
  unnest(tidy_res) %>% 
  select(iter, pop_mean, estimate, p.value)

sim_df
```

    ## # A tibble: 30,000 × 4
    ##     iter pop_mean estimate     p.value
    ##    <int>    <dbl>    <dbl>       <dbl>
    ##  1     1        1    1.31  0.159      
    ##  2     1        2    1.41  0.156      
    ##  3     1        3    2.27  0.0111     
    ##  4     1        4    3.38  0.000575   
    ##  5     1        5    5.35  0.00000154 
    ##  6     1        6    6.32  0.000000256
    ##  7     2        1    1.61  0.0621     
    ##  8     2        2    0.983 0.150      
    ##  9     2        3    4.69  0.00000328 
    ## 10     2        4    5.24  0.0000496  
    ## # ℹ 29,990 more rows
…
``` r
#create a city_state variable
homicide_df = homicide_raw_df %>%
  mutate(city_state = str_c(city, state, sep = ", "))

# Summarizing homicides within each city
homicide_df %>%
  group_by(city_state) %>%
  summarize(
    total_homicides = n(),
    unsolved_homicides = sum(disposition %in% c("Closed without arrest", "Open/No arrest"))
  )
```

    ## # A tibble: 51 × 3
    ##    city_state      total_homicides unsolved_homicides
    ##    <chr>                     <int>              <int>
    ##  1 Albuquerque, NM             378                146
    ##  2 Atlanta, GA                 973                373
    ##  3 Baltimore, MD              2827               1825
    ##  4 Baton Rouge, LA             424                196
    ##  5 Birmingham, AL              800                347
    ##  6 Boston, MA                  614                310
    ##  7 Buffalo, NY                 521                319
    ##  8 Charlotte, NC               687                206
    ##  9 Chicago, IL                5535               4073
    ## 10 Cincinnati, OH              694                309
    ## # ℹ 41 more rows
…
    ## Warning: There was 1 warning in `mutate()`.
    ## ℹ In argument: `prop_test_res = map2(unsolved_homicides, total_homicides,
    ##   ~prop.test(.x, .y))`.
    ## Caused by warning in `prop.test()`:
    ## ! Chi-squared approximation may be incorrect

``` r
results_df
```

    ## # A tibble: 51 × 4
    ##    city_state      estimate conf.low conf.high
    ##    <chr>              <dbl>    <dbl>     <dbl>
    ##  1 Albuquerque, NM    0.386    0.337     0.438
    ##  2 Atlanta, GA        0.383    0.353     0.415
    ##  3 Baltimore, MD      0.646    0.628     0.663
    ##  4 Baton Rouge, LA    0.462    0.414     0.511
    ##  5 Birmingham, AL     0.434    0.399     0.469
    ##  6 Boston, MA         0.505    0.465     0.545
    ##  7 Buffalo, NY        0.612    0.569     0.654
    ##  8 Charlotte, NC      0.300    0.266     0.336
    ##  9 Chicago, IL        0.736    0.724     0.747
    ## 10 Cincinnati, OH     0.445    0.408     0.483
    ## # ℹ 41 more rows
…
